<svg xmlns="http://www.w3.org/2000/svg" width="352.2" height="70.9" viewBox="0 0 352.2 70.9">
  <title>sanity.io</title>
  <polygon points="262.8 25.2 285 13.7 278.8 3 248.4 18.2 262.8 25.1 262.8 25.2" opacity="0.4" style="isolation: isolate"/>
  <polygon points="248.4 18.2 248.4 32.7 248.4 69.8 262.8 69.8 262.8 25.2 262.8 25.1 248.4 18.2" opacity="0.8" style="isolation: isolate"/>
  <polygon points="145.4 21.6 145.4 69.8 131.6 69.8 131.6 1.1 145.4 21.6" opacity="0.8" style="isolation: isolate"/>
  <polygon points="110.6 35.9 77.1 52.5 69.8 70.9 115.3 47.2 110.6 35.9" opacity="0.4" style="isolation: isolate"/>
  <polygon points="83.9 1.1 59 61.5 69.8 70.9 77.1 52.5 90.6 18.9 83.9 1.1" opacity="0.8" style="isolation: isolate"/>
  <polygon points="83.9 1.1 98.1 1.1 124.4 69.8 109.8 69.8 83.9 1.1"/>
  <polygon points="147.5 1.1 177.8 48.1 177.8 69.8 131.6 1.1 147.5 1.1"/>
  <rect x="203.8" y="1.1" width="14.3" height="68.7"/>
  <polygon points="248.4 13.7 226.4 13.7 226.4 1.1 277.7 1.1 285 13.7 262.8 13.7 248.4 13.7"/>
  <polyline points="327.3 43.8 327.3 69.8 313.1 69.8 313.1 43.8" opacity="0.4" style="isolation: isolate"/>
  <polygon points="337.1 1.1 313.1 43.8 327.3 43.8 352.2 1.1 337.1 1.1"/>
  <polygon points="313.1 43.8 288.3 1.1 303.9 1.1 320.6 30.3 313.1 43.8" opacity="0.8" style="isolation: isolate"/>
  <polygon points="177.8 44.5 177.8 1.1 191.6 1.1 191.6 69.8 177.8 69.8 177.8 44.5" opacity="0.8" style="isolation: isolate"/>
  <path d="M43.3,47.4c5.3,3.4,7.7,8.2,7.7,15.1-4.5,5.7-12.2,8.8-21.3,8.8-15.3,0-26.2-7.6-28.5-20.7H15.9c1.9,6,6.9,8.8,13.7,8.8,8.1,0.1,13.6-4.3,13.7-12" transform="translate(-1.2 -0.4)" opacity="0.8" style="isolation: isolate"/>
  <path d="M14.6,23.6A15.83,15.83,0,0,1,6.9,9.4c4.3-5.6,11.7-9,20.7-9,15.7,0,24.7,8.3,27,19.9H40.4c-1.6-4.6-5.5-8.2-12.6-8.2-7.7.1-12.9,4.5-13.2,11.5" transform="translate(-1.2 -0.4)" opacity="0.8" style="isolation: isolate"/>
  <path d="M6.9,9.5c0,9.5,5.9,15.2,17.7,18.2l12.5,2.9c11.2,2.6,18,9,18,19.4A20.17,20.17,0,0,1,51,62.5c0-10.4-5.4-16-18.3-19.4L20.4,40.3C10.5,38.1,2.9,32.8,2.9,21.5a19.9,19.9,0,0,1,4-12" transform="translate(-1.2 -0.4)"/>
</svg>
